Class,Flag
macitentan,Opsumit
macitentan,Macitentan
macitentan,Opsumit 10mg od
macitentan,Opsumit (McKesson)
macitentan,Opsumit 10mg
macitentan,Macitentan 10mg
macitentan,d/cOpsumit
macitentan,Macitentan  10mg
macitentan,Macitentan (Local pharmacy)
macitentan,Macitentan 10 mg
macitentan,Macitentan 10 mg q HS
macitentan,Macitentan 3/4 of tablet of 10 mg
macitentan,Macitentan daily
macitentan,Opsumit 10 mg daily
macitentan,Opsumit 10 mg PO AM from McKesson
macitentan,Opsumit daily
macitentan,Opsumit from Mckesson
tadalafil,Tadalafil
tadalafil,Cialis
tadalafil,Tadalafil 40mg
tadalafil,Apo-Tadalafil 40 mg AM from SDM 1803
tadalafil,d/c Tadalafil
tadalafil,Generic Tadalafil
tadalafil,tadalafil 20mg
tadalafil,Tadalafil 40 mg (SDM 1803)
tadalafil,Tadalafil 40 mg HS
tadalafil,Tadalafil 40mg local pharmacy
tadalafil,Tadalafil from local pharmacy
oxygen,Oxygen therapy 3 Litres
oxygen,Oxygen
oxygen,Oxygen 0.5 liter/continous
oxygen,Oxygen 2.5-3 liter when needed
oxygen,Oxygen 24/7
oxygen,Oxygen 2L/min
oxygen,Oxygen 3 L (continuous)
oxygen,Oxygen 3 liters 14/24 (Hs & PRN)
oxygen,Oxygen 4-5 litres
oxygen,Oxygen 4-6 liters and it varies as per her activity
oxygen,Oxygen 5 liters 24/7
oxygen,Oxygen 5% l/m
oxygen,Oxygen 5.5 L 18/24
oxygen,Oxygen 8 liters
oxygen,Oxygen 8-10Litres high flow
oxygen,Oxygen at 2 liters 24/7
oxygen,Oxygen at 6 liters
oxygen,Oxygen at 6 liters 24/7
oxygen,Oxygen at 6 Litres.
oxygen,Oxygen PRN 2 liters
oxygen,Oxygen therapy
oxygen,Oxygen therapy 1 liter 24/24
oxygen,Oxygen therapy 2 liters day PRN & 4 liters night
oxygen,Oxygen therapy 24/7
oxygen,Oxygen therapy 4 L
oxygen,Oxygen therapy at 4 liters continuous
oxygen,Oxygen therapy continuous via mask 8 L while sleeping & 4 L at rest
oxygen,O2 therapy at 8Litres
oxygen,O2 @ 3l/min
oxygen,O2
oxygen,O2 @ 2-3l/min
oxygen,O2 @ 2l/min @hs
oxygen,O2 @ 4L/min
oxygen,O2 @ 9l/min
oxygen,O2 @ pm pnly
oxygen,O2 10 L/min continuous
oxygen,O2 4L/min Continuosu
oxygen,O2 4L/min continuous
oxygen,O2 8 L/min continuous
oxygen,O2 at 2 L/min
oxygen,O2 at 6 liters
oxygen,O2 continually
oxygen,O2 continuous
oxygen,O2 therapy at 3 litres
oxygen,O2@ 6-8l/min
oxygen,O2@2ll/min
ambrisentan,Ambrisentan
bosentan,Tracleer125mg
bosentan,Tracleer 62.5 mg BID
bosentan,Tracleer 125mg bid
bosentan,Tracleer 125mg
bosentan,Tracleer 125mb bid
bosentan,Tracleer 125 mg BID (McKesson)
bosentan,Tracleer 125 mg BID
bosentan,Tracleer 125 mg AM&HS
bosentan,Tracleer 125 mg
bosentan,Tracleer 125 BID
bosentan,Tracleer (HOLD)
bosentan,Tracleer
bosentan,d/cTracleer
bosentan,Bosentan 62.5 mg BID
bosentan,Bosentan 125mgbid
bosentan,Bosentan 125mg BID
bosentan,Bosentan 125mg
bosentan,Bosentan
sildenafil,Viagra TID
sildenafil,Viagra 50 mg TID
sildenafil,Viagra 50 mg 4 tablets/day from SDM 1803 in a bottle
sildenafil,Viagra
sildenafil,Sildenafil D/C
sildenafil,Sildenafil 50 mg TID
sildenafil,Sildenafil 40mg QID
sildenafil,Sildenafil 20mg tid
sildenafil,Sildenafil 20 mg TID
sildenafil,Sildenafil 20 mg PO OD
sildenafil,Sildenafil 10 mg TID
sildenafil,Sildenafil
sildenafil,Ratio Sildenafil
ARBs,Valsartan
ARBs,Telmisartan
ARBs,Micardis
ARBs,Losartan
ARBs,Irbesartan
ARBs,Diovan
ARBs,Cozaar
ARBs,Candesartan
Diuretics,Zaroxolyn
Diuretics,Triamterene
Diuretics,thiazide
Diuretics,spironolactone
Diuretics,Metolazone
Diuretics,Lasix
Diuretics,Hydrochlorothiazide
Diuretics,Furosemide
Diuretics,Edecrin
Diuretics,Diuretic
Diuretics,Chlorthalidone
Diuretics,Aldactone
ERA,ERA
ERA,Opsumit
ERA,Macitentan
ERA,Opsumit 10mg od
ERA,Opsumit (McKesson)
ERA,Opsumit 10mg
ERA,Macitentan 10mg
ERA,d/cOpsumit
ERA,Macitentan  10mg
ERA,Macitentan (Local pharmacy)
ERA,Macitentan 10 mg
ERA,Macitentan 10 mg q HS
ERA,Macitentan 3/4 of tablet of 10 mg
ERA,Macitentan daily
ERA,Opsumit 10 mg daily
ERA,Opsumit 10 mg PO AM from McKesson
ERA,Opsumit daily
ERA,Opsumit from Mckesson
ERA,Ambrisentan
ERA,Tracleer125mg
ERA,Tracleer 62.5 mg BID
ERA,Tracleer 125mg bid
ERA,Tracleer 125mg
ERA,Tracleer 125mb bid
ERA,Tracleer 125 mg BID (McKesson)
ERA,Tracleer 125 mg BID
ERA,Tracleer 125 mg AM&HS
ERA,Tracleer 125 mg
ERA,Tracleer 125 BID
ERA,Tracleer (HOLD)
ERA,Tracleer
ERA,d/cTracleer
ERA,Bosentan 62.5 mg BID
ERA,Bosentan 125mgbid
ERA,Bosentan 125mg BID
ERA,Bosentan 125mg
ERA,Bosentan
PDE5,PD5
PDE5,Tadalafil
PDE5,Cialis
PDE5,Tadalafil 40mg
PDE5,Apo-Tadalafil 40 mg AM from SDM 1803
PDE5,d/c Tadalafil
PDE5,Generic Tadalafil
PDE5,tadalafil 20mg
PDE5,Tadalafil 40 mg (SDM 1803)
PDE5,Tadalafil 40 mg HS
PDE5,Tadalafil 40mg local pharmacy
PDE5,Tadalafil from local pharmacy
PDE5,Viagra TID
PDE5,Viagra 50 mg TID
PDE5,Viagra 50 mg 4 tablets/day from SDM 1803 in a bottle
PDE5,Viagra
PDE5,Sildenafil D/C
PDE5,Sildenafil 50 mg TID
PDE5,Sildenafil 40mg QID
PDE5,Sildenafil 20mg tid
PDE5,Sildenafil 20 mg TID
PDE5,Sildenafil 20 mg PO OD
PDE5,Sildenafil 10 mg TID
PDE5,Sildenafil
PDE5,Ratio Sildenafil
