Product Enrolled,PRODUCT_ID,Patient ID,Prov.,Coverage (%),Copay %
Uptravi,10000500000012,1-1345766849,,99,1
Uptravi,10000500000012,1-1755524292,,99,1
Uptravi,10000500000012,1-6991992408,,29,71
Uptravi,10000500000012,1-6991992408,,20,80
Uptravi,10000500000012,1-12149136339,,5,95
Uptravi,10000500000012,1-376727055,,90,10
Uptravi,10000500000012,1-495509271,,80,20
Uptravi,10000500000012,1-8456805083,,80,20
Uptravi,10000500000012,1-12275446949,,80,20
Uptravi,10000500000012,1-1671277373,,29,71
Uptravi,10000500000012,1-386153090,,1,99
Uptravi,10000500000012,1-805461284,,80,20
Uptravi,10000500000012,4031483,,100,0
Uptravi,10000500000012,1-1961561893,,100,0
Uptravi,10000500000012,1-2111430638,,80,20
Uptravi,10000500000012,1-1345315812,,80,20
Uptravi,10000500000012,1-10136123106,,98,2
Uptravi,10000500000012,1-10850843031,,20,80
Uptravi,10000500000012,1-11750225638,,1,99
Uptravi,10000500000012,1-12928970045,,99,1
Uptravi,10000500000012,1-2828027057,,0,100
Uptravi,10000500000012,1-4525262936,,100,0
Uptravi,10000500000012,4031828,,,
Uptravi,10000500000012,1-104445283,,80,20
Uptravi,10000500000012,1-4050839530,,80,20
Uptravi,10000500000012,1-5072218833,,90,10
Uptravi,10000500000012,1-8317327052,,100,0
Uptravi,10000500000012,1-9925427248,,2,98
Uptravi,10000500000012,1-1514294005,,,
Uptravi,10000500000012,1-1514294005,,20,80
Uptravi,10000500000012,1-6402123259,,,
Uptravi,10000500000012,1-6402123259,,99,1
Uptravi,10000500000012,1-8456805083,,19,81
Uptravi,10000500000012,1-8543149941,,,
Uptravi,10000500000012,1-302835687,,80,20
Uptravi,10000500000012,1-2089474393,,70,30
Uptravi,10000500000012,1-2802067023,,,
Uptravi,10000500000012,1-353612151,,100,0
Uptravi,10000500000012,1-8506083721,,1,99
Uptravi,10000500000012,1-1389524583,,1,99
Uptravi,10000500000012,1-12149136339,,20,80
Uptravi,10000500000012,1-476102858,,,
Uptravi,10000500000012,1-6572660357,,20,80
Uptravi,10000500000012,1-8391054370,,,
Uptravi,10000500000012,1-282182552,,50,50
Uptravi,10000500000012,1-8384984430,,9,91
Uptravi,10000500000012,1-8384984430,,10,90
Uptravi,10000500000012,1-2518235836,,25,75
Uptravi,10000500000012,1-386153090,,1,99
Uptravi,10000500000012,1-386153090,,20,80
Uptravi,10000500000012,1-753907721,,,
Uptravi,10000500000012,1-1289130562,,20,80
Uptravi,10000500000012,1-4243044218,,90,10
Uptravi,10000500000012,1-605720847,,99,1
Uptravi,10000500000012,1-10850843031,,80,20
Uptravi,10000500000012,1-3201821857,,80,20
Uptravi,10000500000012,1-8099039135,,1,99
Uptravi,10000500000012,1-12874426942,,20,80
Uptravi,10000500000012,1-294973786,,,
Uptravi,10000500000012,1-294973786,,,
Uptravi,10000500000012,1-396594557,,80,20
Uptravi,10000500000012,1-7873254225,,20,80
Uptravi,10000500000012,1-81922259,,100,0
Uptravi,10000500000012,1-6572660357,,10,90
Uptravi,10000500000012,1-8657063830,,80,20
Uptravi,10000500000012,1-2409619925,,80,20
Uptravi,10000500000012,1-10790327692,,20,80
Uptravi,10000500000012,1-1671277373,,20,80
Uptravi,10000500000012,1-2518235836,,,
Uptravi,10000500000012,1-328546927,,,
Uptravi,10000500000012,1-386153090,,6,94
Uptravi,10000500000012,1-1040376195,,,
Uptravi,10000500000012,1-1222603791,,99,1
Uptravi,10000500000012,1-1547505735,,80,20
Uptravi,10000500000012,1-1961561893,,100,0
Uptravi,10000500000012,1-2802067023,,80,20
Uptravi,10000500000012,1-384374218,,90,10
Uptravi,10000500000012,1-353612151,,80,20
Uptravi,10000500000012,1-5185367533,,80,20
Uptravi,10000500000012,1-38803294,,80,20
Uptravi,10000500000012,1-38803294,,,
Uptravi,10000500000012,1-4525262936,,,
Uptravi,10000500000012,1-12149136339,,15,85
Uptravi,10000500000012,1-2186503878,,80,20
Uptravi,10000500000012,1-292978269,,,
Uptravi,10000500000012,1-2749012704,,99,1
Uptravi,10000500000012,1-2749012704,,80,20
Uptravi,10000500000012,1-386153090,,6,94
Uptravi,10000500000012,1-386153090,,20,80
Uptravi,10000500000012,1-1040376195,,,
Uptravi,10000500000012,1-2111430638,,,
Uptravi,10000500000012,1-1345315812,,100,0
Uptravi,10000500000012,1-353612151,,99,1
Uptravi,10000500000012,1-4243044218,,100,0
Uptravi,10000500000012,1-10136123106,,99,1
Uptravi,10000500000012,1-1053912722,,75,25
Uptravi,10000500000012,1-4525262936,,10,90
Uptravi,10000500000012,1-12929136985,,90,10
Uptravi,10000500000012,1-8317327052,,80,20
Uptravi,10000500000012,1-1053912879,,80,20
Uptravi,10000500000012,1-11929185172,,20,80
Uptravi,10000500000012,1-456533154,,70,30
Uptravi,10000500000012,1-4645101773,,80,20
Uptravi,10000500000012,1-9817049223,,2,98
Uptravi,10000500000012,1-2802067023,,100,0
Uptravi,10000500000012,1-986390755,,90,10
Uptravi,10000500000012,1-605720847,,99,1
Uptravi,10000500000012,1-8506083721,,2,98
Uptravi,10000500000012,1-10136123106,,80,20
Uptravi,10000500000012,1-1755524292,,0,100
Uptravi,10000500000012,1-1755524292,,100,0
Uptravi,10000500000012,1-1902418043,,80,20
Uptravi,10000500000012,1-2539618157,,80,20
Uptravi,10000500000012,1-2559904587,,80,20
Uptravi,10000500000012,1-3201821857,,49,51
Uptravi,10000500000012,1-360105298,,100,0
Uptravi,10000500000012,1-9858633297,,20,80
Uptravi,10000500000012,1-2828027057,,,
Uptravi,10000500000012,1-4525262936,,80,20
Uptravi,10000500000012,1-5898969463,,80,20
Uptravi,10000500000012,1-82146532,,,
Uptravi,10000500000012,1-90578715,,80,20
Uptravi,10000500000012,1-4008969817,,29,71
Uptravi,10000500000012,1-1628677979,,80,20
Uptravi,10000500000012,1-2547650508,,80,20
Uptravi,10000500000012,1-2547650508,,100,0
Uptravi,10000500000012,1-456533154,,,
Uptravi,10000500000012,1-1547505735,,,
Uptravi,10000500000012,1-753907721,,99,1
Uptravi,10000500000012,1-986390755,,,
Uptravi,10000500000012,1-1345766849,,95,5
Uptravi,10000500000012,1-1755524292,,100,0
Uptravi,10000500000012,1-2233982711,,80,20
Uptravi,10000500000012,1-360105298,,80,20
Uptravi,10000500000012,1-292978269,,19,81
Uptravi,10000500000012,1-476102858,,100,0
Uptravi,10000500000012,1-7125099368,,20,80
Uptravi,10000500000012,1-9734201825,,99,1
Uptravi,10000500000012,1-8391054370,,80,20
Uptravi,10000500000012,1-9925427248,,2,98
Uptravi,10000500000012,1-8384984430,,1,99
Uptravi,10000500000012,1-8456805083,,80,20
Uptravi,10000500000012,1-8456805083,,19,81
Uptravi,10000500000012,1-2547650508,,99,1
Uptravi,10000500000012,1-2718618191,,30,70
Uptravi,10000500000012,1-2749012704,,100,0
Uptravi,10000500000012,1-294983367,,,
Uptravi,10000500000012,1-384077148,,80,20
Uptravi,10000500000012,1-441774731,,80,20
Uptravi,10000500000012,1-813206903,,80,20
Uptravi,10000500000012,1-9817049223,,,
Uptravi,10000500000012,1-3950714393,,80,20
